{
    "GENERAL": {
      "SquadFinderChannelId": 397427656288894986,
      "AwaySquadChannelId": 546335603701317633,
      "AdminCommandChannelId": 408785968313794561,
      "BotCommandChannelId": 423580116992655360,
      "GatewayChannelId": 397407277189169154,
      "MeetAndGreetChannelId": 408626256632872960,
      "NotificationsChannelId": 397561170824921088,
      "InitiatorChatChannelId": 468844160263258112,
      "BotLogChannelId": 669590115412213760,
      "ServerId": 397407276304039937
    },
    "ROLES": {
        "Guide": "Guide",
        "Initiator": "Initiator",
        "Squad Starter": "Top Month Squad Starter",
        "Squad Joiner": "Top Month Squad Member",
        "Inactive Lurker": "Inactive Lurker",
        "Known Absence": "Known Absence",
        "Lurk Streak": "Lurk Streak",
        "The Graveyard": "The Graveyard",
        "Initiate": "Initiate",
        "New Joiner":  "New Joiner"
    },
    "ROLEWHITELIST": {
        "Giveaways": "Giveaways",
        "Notifications":"Notifications",
        "Resource": "Resource",
        "Known A": "Known Absence",
        "Conclave C": "Conclave Cheese",
        "Eidolon": "Eidolon Hunt",
        "Railjack": "Railjack",
        "Sortie": "Sortie",
        "Rocket L": "Rocket League",
        "L4D2": "L4D2",
        "Fortnite": "Fortnite",
        "R6S": "Rainbow 6 Siege",
        "MC": "Minecraft",
        "Overwatch": "Overwatch",
        "Civ": "Civ",
        "Stellaris": "Stellaris",
        "LoL": "League of Legends",
        "Apex": "Apex",
        "Hearth": "Hearthstone",
        "Teamfight T": "Teamfight Tactics",
        "Path of E": "Path of Exile",
        "Jackbox": "Jackbox",
        "Genshin I": "Genshin Impact"
    },
    "REDNAMES": {
        "Redname Thresh": 5,
        "KA Thresh": 10,
        "Streak Redname Thresh": 3,
        "Streak KA Thresh": 3
    }
}